
pasta 002 -> react-basico

no terminal:
    npm start



não adiciona ao state ainda

agora adiciona

idem

na agora de enviar aparece mensagem cannot

ainda nao é possivel alterar valores nas entradas campos

imprimi mas nao atualiza o estado

seta o campo

adicionando normalmente, mas o campo não limpa

limpa agora

removendo comentarios

colocando o 'x' no canto de cada caixa

date-fns.org

no terminal:
   npm i date-fns


formatando data ainda nao corrigido

commit anterior exemplo de ciclo

ver o console idem*

""
React
Sou um componente

10

olá todos
""

adiciona uma unidade
idem

clicar

site reqres.in

""
Promise {<pending>}[[Prototype]]: 
   Promise[[PromiseState]]: "fulfilled"
   [[PromiseResult]]: Response
""

""
Response {type: "cors", url: "https://reqres.in/api/users", redirected: false, status: 200, ok: true, …}
body: (...)
bodyUsed: false
headers: Headers {}
ok: true
redirected: false
status: 200
statusText: ""
type: "cors"
url: "https://reqres.in/api/users"
[[Prototype]]: Response
""

""
{"page":1,"per_page":6,"total":12,"total_pages":2,"data":[{"id":1,"email":"george.bluth@reqres.in","first_name":"George","last_name":"Bluth","avatar":"https://reqres.in/img/faces/1-image.jpg"},{"id":2,"email":"janet.weaver@reqres.in","first_name":"Janet","last_name":"Weaver","avatar":"https://reqres.in/img/faces/2-image.jpg"},{"id":3,"email":"emma.wong@reqres.in","first_name":"Emma","last_name":"Wong","avatar":"https://reqres.in/img/faces/3-image.jpg"},{"id":4,"email":"eve.holt@reqres.in","first_name":"Eve","last_name":"Holt","avatar":"https://reqres.in/img/faces/4-image.jpg"},{"id":5,"email":"charles.morris@reqres.in","first_name":"Charles","last_name":"Morris","avatar":"https://reqres.in/img/faces/5-image.jpg"},{"id":6,"email":"tracey.ramos@reqres.in","first_name":"Tracey","last_name":"Ramos","avatar":"https://reqres.in/img/faces/6-image.jpg"}],"support":{"url":"https://reqres.in/#support-heading","text":"To keep ReqRes free, contributions towards server costs are appreciated!"}}
""

""
{page: 1, per_page: 6, total: 12, total_pages: 2, data: Array(6), …}
""

""
6) [{…}, {…}, {…}, {…}, {…}, {…}]0: {id: 1, email: "george.bluth@reqres.in", first_name: "George", last_name: "Bluth", avatar: "https://reqres.in/img/faces/1-image.jpg"}1: {id: 2, email: "janet.weaver@reqres.in", first_name: "Janet", last_name: "Weaver", avatar: "https://reqres.in/img/faces/2-image.jpg"}2: {id: 3, email: "emma.wong@reqres.in", first_name: "Emma", last_name: "Wong", avatar: "https://reqres.in/img/faces/3-image.jpg"}3: {id: 4, email: "eve.holt@reqres.in", first_name: "Eve", last_name: "Holt", avatar: "https://reqres.in/img/faces/4-image.jpg"}4: {id: 5, email: "charles.morris@reqres.in", first_name: "Charles", last_name: "Morris", avatar: "https://reqres.in/img/faces/5-image.jpg"}5: {id: 6, email: "tracey.ramos@reqres.in", first_name: "Tracey", last_name: "Ramos", avatar: "https://reqres.in/img/faces/6-image.jpg"}length: 6[[Prototype]]: Array(0)

""

aparece a lista

network -> xhr

fazer envio
""
{nome: "aladin", sobrenome: "del13", email: "aladin@gmail.com", id: "58", createdAt: "2021-08-19T13:26:46.048Z"}
createdAt: "2021-08-19T13:26:46.048Z"
email: "aladin@gmail.com"
id: "58"
nome: "aladin"
sobrenome: "del13"
[[Prototype]]: Object
""

network -> xhr -> headers

apagar e ver console

""
Response {type: "cors", url: "https://reqres.in/api/users/5", redirected: false, status: 204, ok: true, …}
""

network -> xhr -> headers

--------

hooks

ver components em react tools no browser

















































































































































































































































